surveytidy — Tidy dplyr/tidyr Verbs for Survey Design Objects • surveytidy
…
Selecting columns

# Design variables (weights, strata) are always kept in @data
# even when not selected — they are required for variance estimation
d2 <- select(d, party, gender, agecat, cregion)

# Design variables are hidden from print() but still present in @data
print(d2)
#> 
#> ── Survey Design ───────────────────────────────────────────────────────────────
#> <survey_taylor> (Taylor series linearization)
#> Sample size: 5022
#> 
#> # A tibble: 5,022 × 4
#>    party gender agecat cregion
#>    <dbl>  <dbl>  <dbl>   <dbl>
#>  1     3      2      4       4
#>  2     2      1      4       4
#>  3     1      2      4       4
#>  4     1      1      2       2
#>  5     1      1      4       1
#>  6     1      1      4       2
#>  7     3      1      3       3
#>  8     3      2      4       4
#>  9     3      2      3       3
#> 10     2      2      2       4
#> # ℹ 5,012 more rows
…
Mutating

# Add new columns
d |>
  mutate(
    economy_poor = as.integer(econ1mod >= 3),
    south = as.integer(cregion == 3)
  )
#> 
#> ── Survey Design ───────────────────────────────────────────────────────────────
#> <survey_taylor> (Taylor series linearization)
#> Sample size: 5022
#> 
#> # A tibble: 5,022 × 67
#>    respid  mode language languageinitial stratum interview_start interview_end
#>     <dbl> <dbl>    <dbl>           <dbl>   <dbl> <date>          <date>       
#>  1   1470     2        1              NA      10 2025-05-27      2025-05-27   
#>  2   2374     2        1              NA       7 2025-05-01      2025-05-01   
#>  3   1177     3        1              10       5 2025-03-04      2025-03-04   
#>  4  15459     2        1              NA      10 2025-05-05      2025-05-05   
#>  5   9849     1        1               9       9 2025-02-22      2025-02-22   
#>  6   8178     3        1               9      10 2025-03-10      2025-03-10   
#>  7   3682     1        1               9       4 2025-02-27      2025-02-27   
#>  8   6999     2        1              NA      10 2025-05-12      2025-05-12   
#>  9   9945     2        1              NA      10 2025-05-09      2025-05-09   
#> 10   1901     1        1               9      10 2025-03-01      2025-03-01   
#> # ℹ 5,012 more rows
#> # ℹ 60 more variables: econ1mod <dbl>, econ1bmod <dbl>, comtype2 <dbl>,
#> #   unity <dbl>, crimesafe <dbl>, govprotct <dbl>, moregunimpact <dbl>,
#> #   fin_sit <dbl>, vet1 <dbl>, vol12_cps <dbl>, eminuse <dbl>, intmob <dbl>,
#> #   intfreq <dbl>, intfreq_collapsed <dbl>, home4nw2 <dbl>, bbhome <dbl>,
#> #   smuse_fb <dbl>, smuse_yt <dbl>, smuse_x <dbl>, smuse_ig <dbl>,
#> #   smuse_sc <dbl>, smuse_wa <dbl>, smuse_tt <dbl>, smuse_rd <dbl>, …

# Modifying a design variable warns you
d |> mutate(weight = weight * 0.5)
#> Warning: ! mutate() modified design variable(s): weight.
#> ℹ The survey design has been updated to reflect the new values.
#> ✔ Use `update_design()` if you intend to modify design variables. Modifying
#>   them via `mutate()` may produce unexpected variance estimates.
#> 
#> ── Survey Design ───────────────────────────────────────────────────────────────
#> <survey_taylor> (Taylor series linearization)
#> Sample size: 5022
#> 
#> # A tibble: 5,022 × 65
#>    respid  mode language languageinitial stratum interview_start interview_end
#>     <dbl> <dbl>    <dbl>           <dbl>   <dbl> <date>          <date>       
#>  1   1470     2        1              NA      10 2025-05-27      2025-05-27   
#>  2   2374     2        1              NA       7 2025-05-01      2025-05-01   
#>  3   1177     3        1              10       5 2025-03-04      2025-03-04   
#>  4  15459     2        1              NA      10 2025-05-05      2025-05-05   
#>  5   9849     1        1               9       9 2025-02-22      2025-02-22   
#>  6   8178     3        1               9      10 2025-03-10      2025-03-10   
#>  7   3682     1        1               9       4 2025-02-27      2025-02-27   
#>  8   6999     2        1              NA      10 2025-05-12      2025-05-12   
#>  9   9945     2        1              NA      10 2025-05-09      2025-05-09   
#> 10   1901     1        1               9      10 2025-03-01      2025-03-01   
#> # ℹ 5,012 more rows
#> # ℹ 58 more variables: econ1mod <dbl>, econ1bmod <dbl>, comtype2 <dbl>,
#> #   unity <dbl>, crimesafe <dbl>, govprotct <dbl>, moregunimpact <dbl>,
#> #   fin_sit <dbl>, vet1 <dbl>, vol12_cps <dbl>, eminuse <dbl>, intmob <dbl>,
#> #   intfreq <dbl>, intfreq_collapsed <dbl>, home4nw2 <dbl>, bbhome <dbl>,
#> #   smuse_fb <dbl>, smuse_yt <dbl>, smuse_x <dbl>, smuse_ig <dbl>,
#> #   smuse_sc <dbl>, smuse_wa <dbl>, smuse_tt <dbl>, smuse_rd <dbl>, …
#> Warning: mutate() modified design variable(s): `weight`

# Grouped mutate via group_by()
d |>
  group_by(partysum) |>
  mutate(econ_rank = rank(econ1mod) / n())
#> 
#> ── Survey Design ───────────────────────────────────────────────────────────────
#> <survey_taylor> (Taylor series linearization)
#> Sample size: 5022
#> Groups: partysum
#> 
#> # A tibble: 5,022 × 66
#>    respid  mode language languageinitial stratum interview_start interview_end
#>     <dbl> <dbl>    <dbl>           <dbl>   <dbl> <date>          <date>       
#>  1   1470     2        1              NA      10 2025-05-27      2025-05-27   
#>  2   2374     2        1              NA       7 2025-05-01      2025-05-01   
#>  3   1177     3        1              10       5 2025-03-04      2025-03-04   
#>  4  15459     2        1              NA      10 2025-05-05      2025-05-05   
#>  5   9849     1        1               9       9 2025-02-22      2025-02-22   
#>  6   8178     3        1               9      10 2025-03-10      2025-03-10   
#>  7   3682     1        1               9       4 2025-02-27      2025-02-27   
#>  8   6999     2        1              NA      10 2025-05-12      2025-05-12   
#>  9   9945     2        1              NA      10 2025-05-09      2025-05-09   
#> 10   1901     1        1               9      10 2025-03-01      2025-03-01   
#> # ℹ 5,012 more rows
#> # ℹ 59 more variables: econ1mod <dbl>, econ1bmod <dbl>, comtype2 <dbl>,
#> #   unity <dbl>, crimesafe <dbl>, govprotct <dbl>, moregunimpact <dbl>,
#> #   fin_sit <dbl>, vet1 <dbl>, vol12_cps <dbl>, eminuse <dbl>, intmob <dbl>,
#> #   intfreq <dbl>, intfreq_collapsed <dbl>, home4nw2 <dbl>, bbhome <dbl>,
#> #   smuse_fb <dbl>, smuse_yt <dbl>, smuse_x <dbl>, smuse_ig <dbl>,
#> #   smuse_sc <dbl>, smuse_wa <dbl>, smuse_tt <dbl>, smuse_rd <dbl>, …

Renaming

# @variables and @metadata stay in sync automatically
d |>
  rename(
    party_affiliation = partysum,
    age_group = agecat
  )
#> 
#> ── Survey Design ───────────────────────────────────────────────────────────────
#> <survey_taylor> (Taylor series linearization)
#> Sample size: 5022
#> 
#> # A tibble: 5,022 × 65
#>    respid  mode language languageinitial stratum interview_start interview_end
#>     <dbl> <dbl>    <dbl>           <dbl>   <dbl> <date>          <date>       
#>  1   1470     2        1              NA      10 2025-05-27      2025-05-27   
#>  2   2374     2        1              NA       7 2025-05-01      2025-05-01   
#>  3   1177     3        1              10       5 2025-03-04      2025-03-04   
#>  4  15459     2        1              NA      10 2025-05-05      2025-05-05   
#>  5   9849     1        1               9       9 2025-02-22      2025-02-22   
#>  6   8178     3        1               9      10 2025-03-10      2025-03-10   
#>  7   3682     1        1               9       4 2025-02-27      2025-02-27   
#>  8   6999     2        1              NA      10 2025-05-12      2025-05-12   
#>  9   9945     2        1              NA      10 2025-05-09      2025-05-09   
#> 10   1901     1        1               9      10 2025-03-01      2025-03-01   
#> # ℹ 5,012 more rows
#> # ℹ 58 more variables: econ1mod <dbl>, econ1bmod <dbl>, comtype2 <dbl>,
#> #   unity <dbl>, crimesafe <dbl>, govprotct <dbl>, moregunimpact <dbl>,
#> #   fin_sit <dbl>, vet1 <dbl>, vol12_cps <dbl>, eminuse <dbl>, intmob <dbl>,
#> #   intfreq <dbl>, intfreq_collapsed <dbl>, home4nw2 <dbl>, bbhome <dbl>,
#> #   smuse_fb <dbl>, smuse_yt <dbl>, smuse_x <dbl>, smuse_ig <dbl>,
#> #   smuse_sc <dbl>, smuse_wa <dbl>, smuse_tt <dbl>, smuse_rd <dbl>, …

Sorting

# Rows sort; domain column moves with them
d |>
  filter(partysum == 1) |>
  arrange(agecat)
#> 
#> ── Survey Design ───────────────────────────────────────────────────────────────
#> <survey_taylor> (Taylor series linearization)
#> Sample size: 5022
#> 
#> # A tibble: 5,022 × 66
#>    respid  mode language languageinitial stratum interview_start interview_end
#>     <dbl> <dbl>    <dbl>           <dbl>   <dbl> <date>          <date>       
#>  1  13673     1        1               9      10 2025-03-02      2025-03-02   
#>  2   9247     1        1               9       7 2025-03-03      2025-03-03   
#>  3  14402     1        1               9      10 2025-03-09      2025-03-09   
#>  4   2820     1        1               9       9 2025-02-24      2025-02-24   
#>  5  12802     1        1               9       6 2025-02-24      2025-02-24   
#>  6   7003     1        1               9       7 2025-02-25      2025-02-25   
#>  7   8391     1        2              10       7 2025-03-14      2025-03-14   
#>  8   2499     1        1               9      10 2025-02-25      2025-02-25   
#>  9     80     1        1               9       1 2025-03-12      2025-03-12   
#> 10   5357     1        1               9      10 2025-03-15      2025-03-15   
#> # ℹ 5,012 more rows
#> # ℹ 59 more variables: econ1mod <dbl>, econ1bmod <dbl>, comtype2 <dbl>,
#> #   unity <dbl>, crimesafe <dbl>, govprotct <dbl>, moregunimpact <dbl>,
#> #   fin_sit <dbl>, vet1 <dbl>, vol12_cps <dbl>, eminuse <dbl>, intmob <dbl>,
#> #   intfreq <dbl>, intfreq_collapsed <dbl>, home4nw2 <dbl>, bbhome <dbl>,
#> #   smuse_fb <dbl>, smuse_yt <dbl>, smuse_x <dbl>, smuse_ig <dbl>,
#> #   smuse_sc <dbl>, smuse_wa <dbl>, smuse_tt <dbl>, smuse_rd <dbl>, …

# Sort by group first, then by value within group
d |>
  group_by(partysum) |>
  arrange(agecat, .by_group = TRUE)
#> 
#> ── Survey Design ───────────────────────────────────────────────────────────────
#> <survey_taylor> (Taylor series linearization)
#> Sample size: 5022
#> Groups: partysum
#> 
#> # A tibble: 5,022 × 65
#>    respid  mode language languageinitial stratum interview_start interview_end
#>     <dbl> <dbl>    <dbl>           <dbl>   <dbl> <date>          <date>       
#>  1  14402     1        1               9      10 2025-03-09      2025-03-09   
#>  2   8391     1        2              10       7 2025-03-14      2025-03-14   
#>  3   2499     1        1               9      10 2025-02-25      2025-02-25   
#>  4     80     1        1               9       1 2025-03-12      2025-03-12   
#>  5   5357     1        1               9      10 2025-03-15      2025-03-15   
#>  6  10841     1        1               9       5 2025-03-25      2025-03-25   
#>  7   8646     1        2               9       8 2025-02-28      2025-02-28   
#>  8   5576     1        1               9      10 2025-02-27      2025-02-27   
#>  9  11753     2        1              NA       5 2025-05-01      2025-05-01   
#> 10  17387     2        1              NA       7 2025-05-27      2025-05-27   
#> # ℹ 5,012 more rows
#> # ℹ 58 more variables: econ1mod <dbl>, econ1bmod <dbl>, comtype2 <dbl>,
#> #   unity <dbl>, crimesafe <dbl>, govprotct <dbl>, moregunimpact <dbl>,
#> #   fin_sit <dbl>, vet1 <dbl>, vol12_cps <dbl>, eminuse <dbl>, intmob <dbl>,
#> #   intfreq <dbl>, intfreq_collapsed <dbl>, home4nw2 <dbl>, bbhome <dbl>,
#> #   smuse_fb <dbl>, smuse_yt <dbl>, smuse_x <dbl>, smuse_ig <dbl>,
#> #   smuse_sc <dbl>, smuse_wa <dbl>, smuse_tt <dbl>, smuse_rd <dbl>, …
…
Physical row operations (use sparingly)

# These physically remove rows and always issue a warning.
# Use filter() instead for subpopulation analyses.
slice_head(d, n = 100) # first 100 rows
#> Warning: ! `slice_head()` physically removes rows from the survey data.
#> ℹ This is different from `filter()`, which preserves all rows for correct
#>   variance estimation.
#> ✔ Use `filter()` for subpopulation analyses instead.
#> 
#> ── Survey Design ───────────────────────────────────────────────────────────────
#> <survey_taylor> (Taylor series linearization)
#> Sample size: 100
#> 
#> # A tibble: 100 × 65
#>    respid  mode language languageinitial stratum interview_start interview_end
#>     <dbl> <dbl>    <dbl>           <dbl>   <dbl> <date>          <date>       
#>  1   1470     2        1              NA      10 2025-05-27      2025-05-27   
#>  2   2374     2        1              NA       7 2025-05-01      2025-05-01   
#>  3   1177     3        1              10       5 2025-03-04      2025-03-04   
#>  4  15459     2        1              NA      10 2025-05-05      2025-05-05   
#>  5   9849     1        1               9       9 2025-02-22      2025-02-22   
#>  6   8178     3        1               9      10 2025-03-10      2025-03-10   
#>  7   3682     1        1               9       4 2025-02-27      2025-02-27   
#>  8   6999     2        1              NA      10 2025-05-12      2025-05-12   
#>  9   9945     2        1              NA      10 2025-05-09      2025-05-09   
#> 10   1901     1        1               9      10 2025-03-01      2025-03-01   
#> # ℹ 90 more rows
#> # ℹ 58 more variables: econ1mod <dbl>, econ1bmod <dbl>, comtype2 <dbl>,
#> #   unity <dbl>, crimesafe <dbl>, govprotct <dbl>, moregunimpact <dbl>,
#> #   fin_sit <dbl>, vet1 <dbl>, vol12_cps <dbl>, eminuse <dbl>, intmob <dbl>,
#> #   intfreq <dbl>, intfreq_collapsed <dbl>, home4nw2 <dbl>, bbhome <dbl>,
#> #   smuse_fb <dbl>, smuse_yt <dbl>, smuse_x <dbl>, smuse_ig <dbl>,
#> #   smuse_sc <dbl>, smuse_wa <dbl>, smuse_tt <dbl>, smuse_rd <dbl>, …
subset(d, !is.na(fin_sit)) # remove rows with NA in fin_sit
#> Warning: ! `subset()` physically removes rows from the survey data.
#> ℹ This is different from `filter()`, which preserves all rows for correct
#>   variance estimation.
#> ✔ Use `filter()` for subpopulation analyses instead.
#> 
#> ── Survey Design ───────────────────────────────────────────────────────────────
#> <survey_taylor> (Taylor series linearization)
#> Sample size: 5022
#> 
#> # A tibble: 5,022 × 65
#>    respid  mode language languageinitial stratum interview_start interview_end
#>     <dbl> <dbl>    <dbl>           <dbl>   <dbl> <date>          <date>       
#>  1   1470     2        1              NA      10 2025-05-27      2025-05-27   
#>  2   2374     2        1              NA       7 2025-05-01      2025-05-01   
#>  3   1177     3        1              10       5 2025-03-04      2025-03-04   
#>  4  15459     2        1              NA      10 2025-05-05      2025-05-05   
#>  5   9849     1        1               9       9 2025-02-22      2025-02-22   
#>  6   8178     3        1               9      10 2025-03-10      2025-03-10   
#>  7   3682     1        1               9       4 2025-02-27      2025-02-27   
#>  8   6999     2        1              NA      10 2025-05-12      2025-05-12   
#>  9   9945     2        1              NA      10 2025-05-09      2025-05-09   
#> 10   1901     1        1               9      10 2025-03-01      2025-03-01   
#> # ℹ 5,012 more rows
#> # ℹ 58 more variables: econ1mod <dbl>, econ1bmod <dbl>, comtype2 <dbl>,
#> #   unity <dbl>, crimesafe <dbl>, govprotct <dbl>, moregunimpact <dbl>,
#> #   fin_sit <dbl>, vet1 <dbl>, vol12_cps <dbl>, eminuse <dbl>, intmob <dbl>,
#> #   intfreq <dbl>, intfreq_collapsed <dbl>, home4nw2 <dbl>, bbhome <dbl>,
#> #   smuse_fb <dbl>, smuse_yt <dbl>, smuse_x <dbl>, smuse_ig <dbl>,
#> #   smuse_sc <dbl>, smuse_wa <dbl>, smuse_tt <dbl>, smuse_rd <dbl>, …
…
