…
    Code
      mutate(d, strata = paste0(strata, "_mod"))
    Condition
      Warning:
      ! mutate() modified structural design variable(s): strata.
      i Structural recoding can invalidate variance estimates.
      i Use `subset()` or `filter()` to restrict the domain; do not recode design variables.
    Message
      
      -- Survey Design ---------------------------------------------------------------
      <survey_taylor> (Taylor series linearization)
      Sample size: 100
      
    Output
      # A tibble: 100 x 8
         psu   strata          fpc    wt    y1      y2    y3 group
         <chr> <chr>         <dbl> <dbl> <dbl>   <dbl> <int> <chr>
       1 psu_1 stratum_1_mod   742  14.3  48.8 -1.05       0 C    
       2 psu_1 stratum_1_mod   742  21.8  51.9 -0.646      0 A    
       3 psu_1 stratum_1_mod   742  14.4  51.2 -0.185      1 C    
       4 psu_1 stratum_1_mod   742  18.9  49.7 -1.20       1 C    
       5 psu_1 stratum_1_mod   742  23.0  51.1  2.04       0 A    
       6 psu_1 stratum_1_mod   742  11.0  45.1  0.108      0 C    
       7 psu_2 stratum_1_mod   742  13.8  45.0 -0.0841     0 A    
       8 psu_2 stratum_1_mod   742  14.2  33.4  0.496      0 C    
       9 psu_2 stratum_1_mod   742  16.5  46.2  0.0374     1 B    
      10 psu_2 stratum_1_mod   742  13.7  44.9 -0.132      0 C    
      # i 90 more rows
