A generalised vectorised if-else — case_when • surveytidy
…
# show the new column
new
#> 
#> ── Survey Design ───────────────────────────────────────────────────────────────
#> <survey_nonprob> (calibrated / non-probability) [experimental]
#> Sample size: 6422
#> 
#> # A tibble: 6,422 × 3
#>      age  pid3 age_pid           
#>    <dbl> <dbl> <chr>             
#>  1    37     1 Everyone else     
#>  2    45     1 Everyone else     
#>  3    24     1 18-29 Democrats   
#>  4    26     3 18-29 Independents
#>  5    60     2 Everyone else     
#>  6    55     1 Everyone else     
#>  7    37     4 Everyone else     
#>  8    46     2 Everyone else     
#>  9    60     2 Everyone else     
#> 10    32     1 Everyone else     
#> # ℹ 6,412 more rows
…
new
#> 
#> ── Survey Design ───────────────────────────────────────────────────────────────
#> <survey_nonprob> (calibrated / non-probability) [experimental]
#> Sample size: 6422
#> 
#> # A tibble: 6,422 × 3
#>      age  pid3 age_pid           
#>    <dbl> <dbl> <fct>             
#>  1    37     1 Everyone else     
#>  2    45     1 Everyone else     
#>  3    24     1 18-29 Democrats   
#>  4    26     3 18-29 Independents
#>  5    60     2 Everyone else     
#>  6    55     1 Everyone else     
#>  7    37     4 Everyone else     
#>  8    46     2 Everyone else     
#>  9    60     2 Everyone else     
#> 10    32     1 Everyone else     
#> # ℹ 6,412 more rows
…
