…
## Examples

``` r
library(surveytidy)
library(surveycore)
d <- as_survey(pew_npors_2025, weights = weight, strata = stratum)

# Keep adults 50 and older
filter(d, agecat >= 3)
#> 
#> ── Survey Design ───────────────────────────────────────────────────────────────
#> <survey_taylor> (Taylor series linearization)
#> Sample size: 5022
#> 
#> # A tibble: 5,022 × 66
#>    respid  mode language languageinitial stratum interview_start interview_end
#>     <dbl> <dbl>    <dbl>           <dbl>   <dbl> <date>          <date>       
#>  1   1470     2        1              NA      10 2025-05-27      2025-05-27   
#>  2   2374     2        1              NA       7 2025-05-01      2025-05-01   
#>  3   1177     3        1              10       5 2025-03-04      2025-03-04   
#>  4  15459     2        1              NA      10 2025-05-05      2025-05-05   
#>  5   9849     1        1               9       9 2025-02-22      2025-02-22   
#>  6   8178     3        1               9      10 2025-03-10      2025-03-10   
#>  7   3682     1        1               9       4 2025-02-27      2025-02-27   
#>  8   6999     2        1              NA      10 2025-05-12      2025-05-12   
#>  9   9945     2        1              NA      10 2025-05-09      2025-05-09   
#> 10   1901     1        1               9      10 2025-03-01      2025-03-01   
#> # ℹ 5,012 more rows
#> # ℹ 59 more variables: econ1mod <dbl>, econ1bmod <dbl>, comtype2 <dbl>,
#> #   unity <dbl>, crimesafe <dbl>, govprotct <dbl>, moregunimpact <dbl>,
#> #   fin_sit <dbl>, vet1 <dbl>, vol12_cps <dbl>, eminuse <dbl>, intmob <dbl>,
#> #   intfreq <dbl>, intfreq_collapsed <dbl>, home4nw2 <dbl>, bbhome <dbl>,
#> #   smuse_fb <dbl>, smuse_yt <dbl>, smuse_x <dbl>, smuse_ig <dbl>,
#> #   smuse_sc <dbl>, smuse_wa <dbl>, smuse_tt <dbl>, smuse_rd <dbl>, …

# Multiple conditions are AND-ed together
filter(d, agecat >= 3, gender == 2)
#> 
#> ── Survey Design ───────────────────────────────────────────────────────────────
#> <survey_taylor> (Taylor series linearization)
#> Sample size: 5022
#> 
#> # A tibble: 5,022 × 66
#>    respid  mode language languageinitial stratum interview_start interview_end
#>     <dbl> <dbl>    <dbl>           <dbl>   <dbl> <date>          <date>       
#>  1   1470     2        1              NA      10 2025-05-27      2025-05-27   
#>  2   2374     2        1              NA       7 2025-05-01      2025-05-01   
#>  3   1177     3        1              10       5 2025-03-04      2025-03-04   
#>  4  15459     2        1              NA      10 2025-05-05      2025-05-05   
#>  5   9849     1        1               9       9 2025-02-22      2025-02-22   
#>  6   8178     3        1               9      10 2025-03-10      2025-03-10   
#>  7   3682     1        1               9       4 2025-02-27      2025-02-27   
#>  8   6999     2        1              NA      10 2025-05-12      2025-05-12   
#>  9   9945     2        1              NA      10 2025-05-09      2025-05-09   
#> 10   1901     1        1               9      10 2025-03-01      2025-03-01   
#> # ℹ 5,012 more rows
#> # ℹ 59 more variables: econ1mod <dbl>, econ1bmod <dbl>, comtype2 <dbl>,
#> #   unity <dbl>, crimesafe <dbl>, govprotct <dbl>, moregunimpact <dbl>,
#> #   fin_sit <dbl>, vet1 <dbl>, vol12_cps <dbl>, eminuse <dbl>, intmob <dbl>,
#> #   intfreq <dbl>, intfreq_collapsed <dbl>, home4nw2 <dbl>, bbhome <dbl>,
#> #   smuse_fb <dbl>, smuse_yt <dbl>, smuse_x <dbl>, smuse_ig <dbl>,
#> #   smuse_sc <dbl>, smuse_wa <dbl>, smuse_tt <dbl>, smuse_rd <dbl>, …

# filter_out() excludes matching rows — complement of filter()
filter_out(d, agecat == 1)
#> 
#> ── Survey Design ───────────────────────────────────────────────────────────────
#> <survey_taylor> (Taylor series linearization)
#> Sample size: 5022
#> 
#> # A tibble: 5,022 × 66
#>    respid  mode language languageinitial stratum interview_start interview_end
#>     <dbl> <dbl>    <dbl>           <dbl>   <dbl> <date>          <date>       
#>  1   1470     2        1              NA      10 2025-05-27      2025-05-27   
#>  2   2374     2        1              NA       7 2025-05-01      2025-05-01   
#>  3   1177     3        1              10       5 2025-03-04      2025-03-04   
#>  4  15459     2        1              NA      10 2025-05-05      2025-05-05   
#>  5   9849     1        1               9       9 2025-02-22      2025-02-22   
#>  6   8178     3        1               9      10 2025-03-10      2025-03-10   
#>  7   3682     1        1               9       4 2025-02-27      2025-02-27   
#>  8   6999     2        1              NA      10 2025-05-12      2025-05-12   
#>  9   9945     2        1              NA      10 2025-05-09      2025-05-09   
#> 10   1901     1        1               9      10 2025-03-01      2025-03-01   
#> # ℹ 5,012 more rows
#> # ℹ 59 more variables: econ1mod <dbl>, econ1bmod <dbl>, comtype2 <dbl>,
#> #   unity <dbl>, crimesafe <dbl>, govprotct <dbl>, moregunimpact <dbl>,
#> #   fin_sit <dbl>, vet1 <dbl>, vol12_cps <dbl>, eminuse <dbl>, intmob <dbl>,
#> #   intfreq <dbl>, intfreq_collapsed <dbl>, home4nw2 <dbl>, bbhome <dbl>,
#> #   smuse_fb <dbl>, smuse_yt <dbl>, smuse_x <dbl>, smuse_ig <dbl>,
#> #   smuse_sc <dbl>, smuse_wa <dbl>, smuse_tt <dbl>, smuse_rd <dbl>, …

# Chained calls accumulate (these are equivalent)
filter(d, agecat >= 3, gender == 2)
#> 
#> ── Survey Design ───────────────────────────────────────────────────────────────
#> <survey_taylor> (Taylor series linearization)
#> Sample size: 5022
#> 
#> # A tibble: 5,022 × 66
#>    respid  mode language languageinitial stratum interview_start interview_end
#>     <dbl> <dbl>    <dbl>           <dbl>   <dbl> <date>          <date>       
#>  1   1470     2        1              NA      10 2025-05-27      2025-05-27   
#>  2   2374     2        1              NA       7 2025-05-01      2025-05-01   
#>  3   1177     3        1              10       5 2025-03-04      2025-03-04   
#>  4  15459     2        1              NA      10 2025-05-05      2025-05-05   
#>  5   9849     1        1               9       9 2025-02-22      2025-02-22   
#>  6   8178     3        1               9      10 2025-03-10      2025-03-10   
#>  7   3682     1        1               9       4 2025-02-27      2025-02-27   
#>  8   6999     2        1              NA      10 2025-05-12      2025-05-12   
#>  9   9945     2        1              NA      10 2025-05-09      2025-05-09   
#> 10   1901     1        1               9      10 2025-03-01      2025-03-01   
#> # ℹ 5,012 more rows
#> # ℹ 59 more variables: econ1mod <dbl>, econ1bmod <dbl>, comtype2 <dbl>,
#> #   unity <dbl>, crimesafe <dbl>, govprotct <dbl>, moregunimpact <dbl>,
#> #   fin_sit <dbl>, vet1 <dbl>, vol12_cps <dbl>, eminuse <dbl>, intmob <dbl>,
#> #   intfreq <dbl>, intfreq_collapsed <dbl>, home4nw2 <dbl>, bbhome <dbl>,
#> #   smuse_fb <dbl>, smuse_yt <dbl>, smuse_x <dbl>, smuse_ig <dbl>,
#> #   smuse_sc <dbl>, smuse_wa <dbl>, smuse_tt <dbl>, smuse_rd <dbl>, …
filter(d, agecat >= 3) |> filter(gender == 2)
#> 
#> ── Survey Design ───────────────────────────────────────────────────────────────
#> <survey_taylor> (Taylor series linearization)
#> Sample size: 5022
#> 
#> # A tibble: 5,022 × 66
#>    respid  mode language languageinitial stratum interview_start interview_end
#>     <dbl> <dbl>    <dbl>           <dbl>   <dbl> <date>          <date>       
#>  1   1470     2        1              NA      10 2025-05-27      2025-05-27   
#>  2   2374     2        1              NA       7 2025-05-01      2025-05-01   
#>  3   1177     3        1              10       5 2025-03-04      2025-03-04   
#>  4  15459     2        1              NA      10 2025-05-05      2025-05-05   
#>  5   9849     1        1               9       9 2025-02-22      2025-02-22   
#>  6   8178     3        1               9      10 2025-03-10      2025-03-10   
#>  7   3682     1        1               9       4 2025-02-27      2025-02-27   
#>  8   6999     2        1              NA      10 2025-05-12      2025-05-12   
#>  9   9945     2        1              NA      10 2025-05-09      2025-05-09   
#> 10   1901     1        1               9      10 2025-03-01      2025-03-01   
#> # ℹ 5,012 more rows
#> # ℹ 59 more variables: econ1mod <dbl>, econ1bmod <dbl>, comtype2 <dbl>,
#> #   unity <dbl>, crimesafe <dbl>, govprotct <dbl>, moregunimpact <dbl>,
#> #   fin_sit <dbl>, vet1 <dbl>, vol12_cps <dbl>, eminuse <dbl>, intmob <dbl>,
#> #   intfreq <dbl>, intfreq_collapsed <dbl>, home4nw2 <dbl>, bbhome <dbl>,
#> #   smuse_fb <dbl>, smuse_yt <dbl>, smuse_x <dbl>, smuse_ig <dbl>,
#> #   smuse_sc <dbl>, smuse_wa <dbl>, smuse_tt <dbl>, smuse_rd <dbl>, …

# Multi-column conditions with if_any() and if_all()
filter(d, dplyr::if_any(c(smuse_fb, smuse_yt), ~ !is.na(.x)))
#> 
#> ── Survey Design ───────────────────────────────────────────────────────────────
#> <survey_taylor> (Taylor series linearization)
#> Sample size: 5022
#> 
#> # A tibble: 5,022 × 66
#>    respid  mode language languageinitial stratum interview_start interview_end
#>     <dbl> <dbl>    <dbl>           <dbl>   <dbl> <date>          <date>       
#>  1   1470     2        1              NA      10 2025-05-27      2025-05-27   
#>  2   2374     2        1              NA       7 2025-05-01      2025-05-01   
#>  3   1177     3        1              10       5 2025-03-04      2025-03-04   
#>  4  15459     2        1              NA      10 2025-05-05      2025-05-05   
#>  5   9849     1        1               9       9 2025-02-22      2025-02-22   
#>  6   8178     3        1               9      10 2025-03-10      2025-03-10   
#>  7   3682     1        1               9       4 2025-02-27      2025-02-27   
#>  8   6999     2        1              NA      10 2025-05-12      2025-05-12   
#>  9   9945     2        1              NA      10 2025-05-09      2025-05-09   
#> 10   1901     1        1               9      10 2025-03-01      2025-03-01   
#> # ℹ 5,012 more rows
#> # ℹ 59 more variables: econ1mod <dbl>, econ1bmod <dbl>, comtype2 <dbl>,
#> #   unity <dbl>, crimesafe <dbl>, govprotct <dbl>, moregunimpact <dbl>,
#> #   fin_sit <dbl>, vet1 <dbl>, vol12_cps <dbl>, eminuse <dbl>, intmob <dbl>,
#> #   intfreq <dbl>, intfreq_collapsed <dbl>, home4nw2 <dbl>, bbhome <dbl>,
#> #   smuse_fb <dbl>, smuse_yt <dbl>, smuse_x <dbl>, smuse_ig <dbl>,
#> #   smuse_sc <dbl>, smuse_wa <dbl>, smuse_tt <dbl>, smuse_rd <dbl>, …
filter(d, dplyr::if_all(c(smuse_fb, smuse_yt), ~ !is.na(.x)))
#> 
#> ── Survey Design ───────────────────────────────────────────────────────────────
#> <survey_taylor> (Taylor series linearization)
#> Sample size: 5022
#> 
#> # A tibble: 5,022 × 66
#>    respid  mode language languageinitial stratum interview_start interview_end
#>     <dbl> <dbl>    <dbl>           <dbl>   <dbl> <date>          <date>       
#>  1   1470     2        1              NA      10 2025-05-27      2025-05-27   
#>  2   2374     2        1              NA       7 2025-05-01      2025-05-01   
#>  3   1177     3        1              10       5 2025-03-04      2025-03-04   
#>  4  15459     2        1              NA      10 2025-05-05      2025-05-05   
#>  5   9849     1        1               9       9 2025-02-22      2025-02-22   
#>  6   8178     3        1               9      10 2025-03-10      2025-03-10   
#>  7   3682     1        1               9       4 2025-02-27      2025-02-27   
#>  8   6999     2        1              NA      10 2025-05-12      2025-05-12   
#>  9   9945     2        1              NA      10 2025-05-09      2025-05-09   
#> 10   1901     1        1               9      10 2025-03-01      2025-03-01   
#> # ℹ 5,012 more rows
#> # ℹ 59 more variables: econ1mod <dbl>, econ1bmod <dbl>, comtype2 <dbl>,
#> #   unity <dbl>, crimesafe <dbl>, govprotct <dbl>, moregunimpact <dbl>,
#> #   fin_sit <dbl>, vet1 <dbl>, vol12_cps <dbl>, eminuse <dbl>, intmob <dbl>,
#> #   intfreq <dbl>, intfreq_collapsed <dbl>, home4nw2 <dbl>, bbhome <dbl>,
#> #   smuse_fb <dbl>, smuse_yt <dbl>, smuse_x <dbl>, smuse_ig <dbl>,
#> #   smuse_sc <dbl>, smuse_wa <dbl>, smuse_tt <dbl>, smuse_rd <dbl>, …
```
