…
``` r
library(surveytidy)
library(surveycore)
d <- as_survey(pew_npors_2025, weights = weight, strata = stratum)

# Group by a column
group_by(d, gender)
#> 
#> ── Survey Design ───────────────────────────────────────────────────────────────
#> <survey_taylor> (Taylor series linearization)
#> Sample size: 5022
#> Groups: gender
#> 
#> # A tibble: 5,022 × 65
#>    respid  mode language languageinitial stratum interview_start interview_end
#>     <dbl> <dbl>    <dbl>           <dbl>   <dbl> <date>          <date>       
#>  1   1470     2        1              NA      10 2025-05-27      2025-05-27   
#>  2   2374     2        1              NA       7 2025-05-01      2025-05-01   
#>  3   1177     3        1              10       5 2025-03-04      2025-03-04   
#>  4  15459     2        1              NA      10 2025-05-05      2025-05-05   
#>  5   9849     1        1               9       9 2025-02-22      2025-02-22   
#>  6   8178     3        1               9      10 2025-03-10      2025-03-10   
#>  7   3682     1        1               9       4 2025-02-27      2025-02-27   
#>  8   6999     2        1              NA      10 2025-05-12      2025-05-12   
#>  9   9945     2        1              NA      10 2025-05-09      2025-05-09   
#> 10   1901     1        1               9      10 2025-03-01      2025-03-01   
#> # ℹ 5,012 more rows
#> # ℹ 58 more variables: econ1mod <dbl>, econ1bmod <dbl>, comtype2 <dbl>,
#> #   unity <dbl>, crimesafe <dbl>, govprotct <dbl>, moregunimpact <dbl>,
#> #   fin_sit <dbl>, vet1 <dbl>, vol12_cps <dbl>, eminuse <dbl>, intmob <dbl>,
#> #   intfreq <dbl>, intfreq_collapsed <dbl>, home4nw2 <dbl>, bbhome <dbl>,
#> #   smuse_fb <dbl>, smuse_yt <dbl>, smuse_x <dbl>, smuse_ig <dbl>,
#> #   smuse_sc <dbl>, smuse_wa <dbl>, smuse_tt <dbl>, smuse_rd <dbl>, …

# Grouped mutate — within-group mean centring
d |>
  group_by(gender) |>
  mutate(econ_centred = econ1mod - mean(econ1mod, na.rm = TRUE))
#> 
#> ── Survey Design ───────────────────────────────────────────────────────────────
#> <survey_taylor> (Taylor series linearization)
#> Sample size: 5022
#> Groups: gender
#> 
#> # A tibble: 5,022 × 66
#>    respid  mode language languageinitial stratum interview_start interview_end
#>     <dbl> <dbl>    <dbl>           <dbl>   <dbl> <date>          <date>       
#>  1   1470     2        1              NA      10 2025-05-27      2025-05-27   
#>  2   2374     2        1              NA       7 2025-05-01      2025-05-01   
#>  3   1177     3        1              10       5 2025-03-04      2025-03-04   
#>  4  15459     2        1              NA      10 2025-05-05      2025-05-05   
#>  5   9849     1        1               9       9 2025-02-22      2025-02-22   
#>  6   8178     3        1               9      10 2025-03-10      2025-03-10   
#>  7   3682     1        1               9       4 2025-02-27      2025-02-27   
#>  8   6999     2        1              NA      10 2025-05-12      2025-05-12   
#>  9   9945     2        1              NA      10 2025-05-09      2025-05-09   
#> 10   1901     1        1               9      10 2025-03-01      2025-03-01   
#> # ℹ 5,012 more rows
#> # ℹ 59 more variables: econ1mod <dbl>, econ1bmod <dbl>, comtype2 <dbl>,
#> #   unity <dbl>, crimesafe <dbl>, govprotct <dbl>, moregunimpact <dbl>,
#> #   fin_sit <dbl>, vet1 <dbl>, vol12_cps <dbl>, eminuse <dbl>, intmob <dbl>,
#> #   intfreq <dbl>, intfreq_collapsed <dbl>, home4nw2 <dbl>, bbhome <dbl>,
#> #   smuse_fb <dbl>, smuse_yt <dbl>, smuse_x <dbl>, smuse_ig <dbl>,
#> #   smuse_sc <dbl>, smuse_wa <dbl>, smuse_tt <dbl>, smuse_rd <dbl>, …

# Add a second grouping variable with .add = TRUE
d |>
  group_by(gender) |>
  group_by(cregion, .add = TRUE)
#> 
#> ── Survey Design ───────────────────────────────────────────────────────────────
#> <survey_taylor> (Taylor series linearization)
#> Sample size: 5022
#> Groups: gender and cregion
#> 
#> # A tibble: 5,022 × 65
#>    respid  mode language languageinitial stratum interview_start interview_end
#>     <dbl> <dbl>    <dbl>           <dbl>   <dbl> <date>          <date>       
#>  1   1470     2        1              NA      10 2025-05-27      2025-05-27   
#>  2   2374     2        1              NA       7 2025-05-01      2025-05-01   
#>  3   1177     3        1              10       5 2025-03-04      2025-03-04   
#>  4  15459     2        1              NA      10 2025-05-05      2025-05-05   
#>  5   9849     1        1               9       9 2025-02-22      2025-02-22   
#>  6   8178     3        1               9      10 2025-03-10      2025-03-10   
#>  7   3682     1        1               9       4 2025-02-27      2025-02-27   
#>  8   6999     2        1              NA      10 2025-05-12      2025-05-12   
#>  9   9945     2        1              NA      10 2025-05-09      2025-05-09   
#> 10   1901     1        1               9      10 2025-03-01      2025-03-01   
#> # ℹ 5,012 more rows
#> # ℹ 58 more variables: econ1mod <dbl>, econ1bmod <dbl>, comtype2 <dbl>,
#> #   unity <dbl>, crimesafe <dbl>, govprotct <dbl>, moregunimpact <dbl>,
#> #   fin_sit <dbl>, vet1 <dbl>, vol12_cps <dbl>, eminuse <dbl>, intmob <dbl>,
#> #   intfreq <dbl>, intfreq_collapsed <dbl>, home4nw2 <dbl>, bbhome <dbl>,
#> #   smuse_fb <dbl>, smuse_yt <dbl>, smuse_x <dbl>, smuse_ig <dbl>,
#> #   smuse_sc <dbl>, smuse_wa <dbl>, smuse_tt <dbl>, smuse_rd <dbl>, …

# Remove all groups
d |> group_by(gender) |> ungroup()
#> 
#> ── Survey Design ───────────────────────────────────────────────────────────────
#> <survey_taylor> (Taylor series linearization)
#> Sample size: 5022
#> 
#> # A tibble: 5,022 × 65
#>    respid  mode language languageinitial stratum interview_start interview_end
#>     <dbl> <dbl>    <dbl>           <dbl>   <dbl> <date>          <date>       
#>  1   1470     2        1              NA      10 2025-05-27      2025-05-27   
#>  2   2374     2        1              NA       7 2025-05-01      2025-05-01   
#>  3   1177     3        1              10       5 2025-03-04      2025-03-04   
#>  4  15459     2        1              NA      10 2025-05-05      2025-05-05   
#>  5   9849     1        1               9       9 2025-02-22      2025-02-22   
#>  6   8178     3        1               9      10 2025-03-10      2025-03-10   
#>  7   3682     1        1               9       4 2025-02-27      2025-02-27   
#>  8   6999     2        1              NA      10 2025-05-12      2025-05-12   
#>  9   9945     2        1              NA      10 2025-05-09      2025-05-09   
#> 10   1901     1        1               9      10 2025-03-01      2025-03-01   
#> # ℹ 5,012 more rows
#> # ℹ 58 more variables: econ1mod <dbl>, econ1bmod <dbl>, comtype2 <dbl>,
#> #   unity <dbl>, crimesafe <dbl>, govprotct <dbl>, moregunimpact <dbl>,
#> #   fin_sit <dbl>, vet1 <dbl>, vol12_cps <dbl>, eminuse <dbl>, intmob <dbl>,
#> #   intfreq <dbl>, intfreq_collapsed <dbl>, home4nw2 <dbl>, bbhome <dbl>,
#> #   smuse_fb <dbl>, smuse_yt <dbl>, smuse_x <dbl>, smuse_ig <dbl>,
#> #   smuse_sc <dbl>, smuse_wa <dbl>, smuse_tt <dbl>, smuse_rd <dbl>, …

# Partial ungroup — remove only gender, keep cregion
d |>
  group_by(gender, cregion) |>
  ungroup(gender)
#> 
#> ── Survey Design ───────────────────────────────────────────────────────────────
#> <survey_taylor> (Taylor series linearization)
#> Sample size: 5022
#> Groups: cregion
#> 
#> # A tibble: 5,022 × 65
#>    respid  mode language languageinitial stratum interview_start interview_end
#>     <dbl> <dbl>    <dbl>           <dbl>   <dbl> <date>          <date>       
#>  1   1470     2        1              NA      10 2025-05-27      2025-05-27   
#>  2   2374     2        1              NA       7 2025-05-01      2025-05-01   
#>  3   1177     3        1              10       5 2025-03-04      2025-03-04   
#>  4  15459     2        1              NA      10 2025-05-05      2025-05-05   
#>  5   9849     1        1               9       9 2025-02-22      2025-02-22   
#>  6   8178     3        1               9      10 2025-03-10      2025-03-10   
#>  7   3682     1        1               9       4 2025-02-27      2025-02-27   
#>  8   6999     2        1              NA      10 2025-05-12      2025-05-12   
#>  9   9945     2        1              NA      10 2025-05-09      2025-05-09   
#> 10   1901     1        1               9      10 2025-03-01      2025-03-01   
#> # ℹ 5,012 more rows
#> # ℹ 58 more variables: econ1mod <dbl>, econ1bmod <dbl>, comtype2 <dbl>,
#> #   unity <dbl>, crimesafe <dbl>, govprotct <dbl>, moregunimpact <dbl>,
#> #   fin_sit <dbl>, vet1 <dbl>, vol12_cps <dbl>, eminuse <dbl>, intmob <dbl>,
#> #   intfreq <dbl>, intfreq_collapsed <dbl>, home4nw2 <dbl>, bbhome <dbl>,
#> #   smuse_fb <dbl>, smuse_yt <dbl>, smuse_x <dbl>, smuse_ig <dbl>,
#> #   smuse_sc <dbl>, smuse_wa <dbl>, smuse_tt <dbl>, smuse_rd <dbl>, …
```
