Vectorised if-else — if_else • surveytidy
…
# basic if_else — identical to dplyr::if_else()
new <- ns_wave1_svy |>
  mutate(senior = if_else(age >= 65, "Senior (65+)", "Non-senior")) |>
  select(age, senior)

# by default, no metadata is attached
new
#> 
#> ── Survey Design ───────────────────────────────────────────────────────────────
#> <survey_nonprob> (non-probability) [experimental]
#> Sample size: 6422
#> 
#> # A tibble: 6,422 × 2
#>      age senior    
#>    <dbl> <chr>     
#>  1    37 Non-senior
#>  2    45 Non-senior
#>  3    24 Non-senior
#>  4    26 Non-senior
#>  5    60 Non-senior
#>  6    55 Non-senior
#>  7    37 Non-senior
#>  8    46 Non-senior
#>  9    60 Non-senior
#> 10    32 Non-senior
#> # ℹ 6,412 more rows
…
new
#> 
#> ── Survey Design ───────────────────────────────────────────────────────────────
#> <survey_nonprob> (non-probability) [experimental]
#> Sample size: 6422
#> 
#> # A tibble: 6,422 × 2
#>     pid3 dem         
#>    <dbl> <chr>       
#>  1     1 Democrat    
#>  2     1 Democrat    
#>  3     1 Democrat    
#>  4     3 Non-Democrat
#>  5     2 Non-Democrat
#>  6     1 Democrat    
#>  7     4 Non-Democrat
#>  8     2 Non-Democrat
#>  9     2 Non-Democrat
#> 10     1 Democrat    
#> # ℹ 6,412 more rows
…
