Convert values to NA — na_if • surveytidy
…
# Replace "Something else" (pid3 == 4) with NA
new <- ns_wave1_svy |>
  mutate(pid3_clean = na_if(pid3, 4)) |>
  select(pid3, pid3_clean)

new
#> 
#> ── Survey Design ───────────────────────────────────────────────────────────────
#> <survey_calibrated> (calibrated / non-probability) [experimental]
#> Sample size: 6422
#> 
#> # A tibble: 6,422 × 2
#>     pid3 pid3_clean
#>    <dbl>      <dbl>
#>  1     1          1
#>  2     1          1
#>  3     1          1
#>  4     3          3
#>  5     2          2
#>  6     1          1
#>  7     4         NA
#>  8     2          2
#>  9     2          2
#> 10     1          1
#> # ℹ 6,412 more rows
…
# Replace both Independent (3) and "Something else" (4) with NA
new <- ns_wave1_svy |>
  mutate(pid3_2party = na_if(pid3, c(3, 4))) |>
  select(pid3, pid3_2party)
#> Error in dplyr::mutate(base_data, ..., .keep = .keep): ℹ In argument: `pid3_2party = na_if(pid3, c(3, 4))`.
#> Caused by error in `na_if()`:
#> ! Can't recycle `y` (size 2) to size 6422.

new
#> 
#> ── Survey Design ───────────────────────────────────────────────────────────────
#> <survey_calibrated> (calibrated / non-probability) [experimental]
#> Sample size: 6422
#> 
#> # A tibble: 6,422 × 2
#>     pid3 pid3_clean
#>    <dbl>      <dbl>
#>  1     1          1
#>  2     1          1
#>  3     1          1
#>  4     3          3
#>  5     2          2
#>  6     1          1
#>  7     4         NA
#>  8     2          2
#>  9     2          2
#> 10     1          1
#> # ℹ 6,412 more rows
…
