Recode values using an explicit mapping — recode_values • surveytidy
…
new
#> 
#> ── Survey Design ───────────────────────────────────────────────────────────────
#> <survey_nonprob> (non-probability) [experimental]
#> Sample size: 6422
#> 
#> # A tibble: 6,422 × 2
#>     pid3 party      
#>    <dbl> <chr>      
#>  1     1 Democrat   
#>  2     1 Democrat   
#>  3     1 Democrat   
#>  4     3 Independent
#>  5     2 Republican 
#>  6     1 Democrat   
#>  7     4 Other      
#>  8     2 Republican 
#>  9     2 Republican 
#> 10     1 Democrat   
#> # ℹ 6,412 more rows
…
# formula interface with default for unmatched values
new <- ns_wave1_svy |>
  mutate(
    dem = recode_values(pid3, 1 ~ "Democrat", default = "Non-Democrat")
  ) |>
  select(pid3, dem)

new
#> 
#> ── Survey Design ───────────────────────────────────────────────────────────────
#> <survey_nonprob> (non-probability) [experimental]
#> Sample size: 6422
#> 
#> # A tibble: 6,422 × 2
#>     pid3 dem         
#>    <dbl> <chr>       
#>  1     1 Democrat    
#>  2     1 Democrat    
#>  3     1 Democrat    
#>  4     3 Non-Democrat
#>  5     2 Non-Democrat
#>  6     1 Democrat    
#>  7     4 Non-Democrat
#>  8     2 Non-Democrat
#>  9     2 Non-Democrat
#> 10     1 Democrat    
#> # ℹ 6,412 more rows
…
new
#> 
#> ── Survey Design ───────────────────────────────────────────────────────────────
#> <survey_nonprob> (non-probability) [experimental]
#> Sample size: 6422
#> 
#> # A tibble: 6,422 × 2
#>     pid3 party      
#>    <dbl> <chr>      
#>  1     1 Democrat   
#>  2     1 Democrat   
#>  3     1 Democrat   
#>  4     3 Independent
#>  5     2 Republican 
#>  6     1 Democrat   
#>  7     4 Other      
#>  8     2 Republican 
#>  9     2 Republican 
#> 10     1 Democrat   
#> # ℹ 6,412 more rows
…
new
#> 
#> ── Survey Design ───────────────────────────────────────────────────────────────
#> <survey_nonprob> (non-probability) [experimental]
#> Sample size: 6422
#> 
#> # A tibble: 6,422 × 2
#>     pid3 dem         
#>    <dbl> <chr>       
#>  1     1 Democrat    
#>  2     1 Democrat    
#>  3     1 Democrat    
#>  4     3 Non-Democrat
#>  5     2 Non-Democrat
#>  6     1 Democrat    
#>  7     4 Non-Democrat
#>  8     2 Non-Democrat
#>  9     2 Non-Democrat
#> 10     1 Democrat    
#> # ℹ 6,412 more rows
…
# .use_labels = TRUE builds the from/to map from existing value labels
new <- ns_wave1_svy |>
  mutate(party = recode_values(pid3, .use_labels = TRUE)) |>
  select(pid3, party)

new
#> 
#> ── Survey Design ───────────────────────────────────────────────────────────────
#> <survey_nonprob> (non-probability) [experimental]
#> Sample size: 6422
#> 
#> # A tibble: 6,422 × 2
#>     pid3 party         
#>    <dbl> <chr>         
#>  1     1 Democrat      
#>  2     1 Democrat      
#>  3     1 Democrat      
#>  4     3 Independent   
#>  5     2 Republican    
#>  6     1 Democrat      
#>  7     4 Something else
#>  8     2 Republican    
#>  9     2 Republican    
#> 10     1 Democrat      
#> # ℹ 6,412 more rows
…
new
#> 
#> ── Survey Design ───────────────────────────────────────────────────────────────
#> <survey_nonprob> (non-probability) [experimental]
#> Sample size: 6422
#> 
#> # A tibble: 6,422 × 2
#>     pid3 party      
#>    <dbl> <fct>      
#>  1     1 Democrat   
#>  2     1 Democrat   
#>  3     1 Democrat   
#>  4     3 Independent
#>  5     2 Republican 
#>  6     1 Democrat   
#>  7     4 Other      
#>  8     2 Republican 
#>  9     2 Republican 
#> 10     1 Democrat   
#> # ℹ 6,412 more rows
…
