…
# Replace "Something else" (4) with 3 (Independent) in pid3.
# Only matching rows change; all others keep their original value.
new <- ns_wave1_svy |>
  mutate(pid3_clean = replace_values(pid3, from = 4, to = 3)) |>
  select(pid3, pid3_clean)

new
#> 
#> ── Survey Design ───────────────────────────────────────────────────────────────
#> <survey_nonprob> (calibrated / non-probability) [experimental]
#> Sample size: 6422
#> 
#> # A tibble: 6,422 × 2
#>     pid3 pid3_clean
#>    <dbl>      <dbl>
#>  1     1          1
#>  2     1          1
#>  3     1          1
#>  4     3          3
#>  5     2          2
#>  6     1          1
#>  7     4          3
#>  8     2          2
#>  9     2          2
#> 10     1          1
#> # ℹ 6,412 more rows
…
