Physically select rows of a survey design object — slice • surveytidy
…
# rows with the 5 lowest survey weights
slice_min(d, order_by = weight, n = 5)
#> Warning: ! `slice_min()` physically removes rows from the survey data.
#> ℹ This is different from `filter()`, which preserves all rows for correct
#>   variance estimation.
#> ✔ Use `filter()` for subpopulation analyses instead.
#> 
#> ── Survey Design ───────────────────────────────────────────────────────────────
#> <survey_taylor> (Taylor series linearization)
#> Sample size: 51
#> 
#> # A tibble: 51 × 65
#>    respid  mode language languageinitial stratum interview_start interview_end
#>     <dbl> <dbl>    <dbl>           <dbl>   <dbl> <date>          <date>       
#>  1   3716     1        1               9       1 2025-02-25      2025-02-25   
#>  2     80     1        1               9       1 2025-03-12      2025-03-12   
#>  3  13195     1        1               9       7 2025-02-24      2025-02-24   
#>  4  12549     1        1               9       9 2025-03-30      2025-03-30   
#>  5  18538     1        1               9       8 2025-03-06      2025-03-06   
#>  6  12391     2        1              NA       7 2025-05-05      2025-05-05   
#>  7   2656     1        1               9       1 2025-03-08      2025-03-08   
#>  8   5702     1        1               9       1 2025-03-10      2025-03-10   
#>  9   7131     1        1               9       2 2025-03-04      2025-03-04   
#> 10   6278     1        1               9       7 2025-03-01      2025-03-01   
#> # ℹ 41 more rows
#> # ℹ 58 more variables: econ1mod <dbl>, econ1bmod <dbl>, comtype2 <dbl>,
#> #   unity <dbl>, crimesafe <dbl>, govprotct <dbl>, moregunimpact <dbl>,
#> #   fin_sit <dbl>, vet1 <dbl>, vol12_cps <dbl>, eminuse <dbl>, intmob <dbl>,
#> #   intfreq <dbl>, intfreq_collapsed <dbl>, home4nw2 <dbl>, bbhome <dbl>,
#> #   smuse_fb <dbl>, smuse_yt <dbl>, smuse_x <dbl>, smuse_ig <dbl>,
#> #   smuse_sc <dbl>, smuse_wa <dbl>, smuse_tt <dbl>, smuse_rd <dbl>, …

# random sample of 50 rows
slice_sample(d, n = 50)
#> Warning: ! `slice_sample()` physically removes rows from the survey data.
#> ℹ This is different from `filter()`, which preserves all rows for correct
#>   variance estimation.
#> ✔ Use `filter()` for subpopulation analyses instead.
#> 
#> ── Survey Design ───────────────────────────────────────────────────────────────
#> <survey_taylor> (Taylor series linearization)
#> Sample size: 50
#> 
#> # A tibble: 50 × 65
#>    respid  mode language languageinitial stratum interview_start interview_end
#>     <dbl> <dbl>    <dbl>           <dbl>   <dbl> <date>          <date>       
#>  1  18518     2        1              NA       7 2025-05-02      2025-05-02   
#>  2   8073     2        1              NA      10 2025-05-06      2025-05-06   
#>  3    447     1        1               9      10 2025-03-02      2025-03-02   
#>  4   4799     3        1               9      10 2025-03-13      2025-03-13   
#>  5  11051     1        1               9      10 2025-02-22      2025-02-22   
#>  6  16872     1        1               9       9 2025-03-09      2025-03-09   
#>  7   9470     2        1              NA      10 2025-05-12      2025-05-12   
#>  8    884     1        1               9       7 2025-03-22      2025-03-22   
#>  9  16750     1        1               9      10 2025-02-27      2025-02-27   
#> 10  16852     1        1               9       2 2025-03-01      2025-03-01   
#> # ℹ 40 more rows
#> # ℹ 58 more variables: econ1mod <dbl>, econ1bmod <dbl>, comtype2 <dbl>,
#> #   unity <dbl>, crimesafe <dbl>, govprotct <dbl>, moregunimpact <dbl>,
#> #   fin_sit <dbl>, vet1 <dbl>, vol12_cps <dbl>, eminuse <dbl>, intmob <dbl>,
#> #   intfreq <dbl>, intfreq_collapsed <dbl>, home4nw2 <dbl>, bbhome <dbl>,
#> #   smuse_fb <dbl>, smuse_yt <dbl>, smuse_x <dbl>, smuse_ig <dbl>,
#> #   smuse_sc <dbl>, smuse_wa <dbl>, smuse_tt <dbl>, smuse_rd <dbl>, …
…
